regression_da_seerave_bib
…
# Prepare output

res_disease_loc <- imap_dfr(
  emm_diff_disease_location,
  ~ mutate(.x, 
           taxon = .y, 
           ci_low  = estimate - 1.96 * SE,
           ci_high = estimate + 1.96 * SE)) %>% 
  group_by(contrast) %>%
  mutate(p_fdr = p.adjust(p.value, method = "fdr"))

res_disease_loc %>%
  arrange(p_fdr)

## # A tibble: 651 × 10
## # Groups:   contrast [3]
##    contrast     estimate    SE    df t.ratio p.value taxon  ci_low ci_high p_fdr
##    <chr>           <dbl> <dbl> <dbl>   <dbl>   <dbl> <chr>   <dbl>   <dbl> <dbl>
##  1 rectum vs r…     1.46 0.484   234    3.03 0.00275 Harr…  0.516    2.41  0.597
##  2 left_colon …    -2.10 0.765   234   -2.75 0.00643 Faec… -3.60    -0.604 0.698
##  3 left_colon …     2.27 0.822   234    2.76 0.00628 Inte…  0.656    3.88  0.698
##  4 left_colon …     1.32 0.508   234    2.60 0.0100  Acti…  0.323    2.31  0.726
##  5 left_colon …     2.18 0.918   234    2.38 0.0182  Ente…  0.384    3.98  0.772
##  6 left_colon …    -1.57 0.695   234   -2.26 0.0249  Stre… -2.93    -0.207 0.772
##  7 left_colon …    -2.03 0.895   234   -2.27 0.0242  Veil… -3.79    -0.276 0.772
##  8 left_colon …    -2.14 0.928   234   -2.31 0.0220  Veil… -3.96    -0.320 0.772
##  9 left_colon …     1.17 0.583   234    2.01 0.0451  Desu…  0.0321   2.32  0.815
## 10 left_colon …     1.49 0.715   234    2.08 0.0385  Eise…  0.0871   2.89  0.815
## # ℹ 641 more rows
…
